…
```
## [1] "character"
```

2. Use `janitor` to rename the columns and make them easier to use. As part of this cleaning step, change `country`, `isscaap_group_number`, `asfis_species_number`, and `fao_major_fishing_area` to data class factor. 

```r
fisheries <- janitor::clean_names(fisheries)
fisheries
```

```
## # A tibble: 17,692 × 71
##    country common_…¹ issca…² issca…³ asfis…⁴ asfis…⁵ fao_m…⁶ measure x1950 x1951
##    <chr>   <chr>       <dbl> <chr>   <chr>   <chr>     <dbl> <chr>   <chr> <chr>
##  1 Albania Angelsha…      38 Sharks… 10903X… Squati…      37 Quanti… <NA>  <NA> 
##  2 Albania Atlantic…      36 Tunas,… 175010… Sarda …      37 Quanti… <NA>  <NA> 
##  3 Albania Barracud…      37 Miscel… 177100… Sphyra…      37 Quanti… <NA>  <NA> 
##  4 Albania Blue and…      45 Shrimp… 228020… Ariste…      37 Quanti… <NA>  <NA> 
##  5 Albania Blue whi…      32 Cods, … 148040… Microm…      37 Quanti… <NA>  <NA> 
##  6 Albania Bluefish       37 Miscel… 170202… Pomato…      37 Quanti… <NA>  <NA> 
##  7 Albania Bogue          33 Miscel… 170392… Boops …      37 Quanti… <NA>  <NA> 
##  8 Albania Caramote…      45 Shrimp… 228010… Penaeu…      37 Quanti… <NA>  <NA> 
##  9 Albania Catshark…      38 Sharks… 108010… Scylio…      37 Quanti… <NA>  <NA> 
## 10 Albania Common c…      57 Squids… 321020… Sepia …      37 Quanti… <NA>  <NA> 
## # … with 17,682 more rows, 61 more variables: x1952 <chr>, x1953 <chr>,
## #   x1954 <chr>, x1955 <chr>, x1956 <chr>, x1957 <chr>, x1958 <chr>,
## #   x1959 <chr>, x1960 <chr>, x1961 <chr>, x1962 <chr>, x1963 <chr>,
## #   x1964 <chr>, x1965 <chr>, x1966 <chr>, x1967 <chr>, x1968 <chr>,
## #   x1969 <chr>, x1970 <chr>, x1971 <chr>, x1972 <chr>, x1973 <chr>,
## #   x1974 <chr>, x1975 <chr>, x1976 <chr>, x1977 <chr>, x1978 <chr>,
## #   x1979 <chr>, x1980 <chr>, x1981 <chr>, x1982 <chr>, x1983 <chr>, …
```
…
4. Refocus the data only to include country, isscaap_taxonomic_group, asfis_species_name, asfis_species_number, year, catch.

```r
fisheries_tidy %>% 
  select(country, isscaap_taxonomic_group, asfis_species_name, asfis_species_number, year, catch)
```

```
## # A tibble: 376,771 × 6
##    country isscaap_taxonomic_group asfis_species_name asfis_specie…¹  year catch
##    <fct>   <chr>                   <chr>              <fct>          <dbl> <dbl>
##  1 Albania Sharks, rays, chimaeras Squatinidae        10903XXXXX      1995    NA
##  2 Albania Sharks, rays, chimaeras Squatinidae        10903XXXXX      1996    53
##  3 Albania Sharks, rays, chimaeras Squatinidae        10903XXXXX      1997    20
##  4 Albania Sharks, rays, chimaeras Squatinidae        10903XXXXX      1998    31
##  5 Albania Sharks, rays, chimaeras Squatinidae        10903XXXXX      1999    30
##  6 Albania Sharks, rays, chimaeras Squatinidae        10903XXXXX      2000    30
##  7 Albania Sharks, rays, chimaeras Squatinidae        10903XXXXX      2001    16
##  8 Albania Sharks, rays, chimaeras Squatinidae        10903XXXXX      2002    79
##  9 Albania Sharks, rays, chimaeras Squatinidae        10903XXXXX      2003     1
## 10 Albania Sharks, rays, chimaeras Squatinidae        10903XXXXX      2004     4
## # … with 376,761 more rows, and abbreviated variable name ¹​asfis_species_number
```

5. Based on the asfis_species_number, how many distinct fish species were caught as part of these data?

1546 distinct species 

```r
fisheries_tidy %>% 
  count(asfis_species_name)
```

```
## # A tibble: 1,546 × 2
##    asfis_species_name            n
##    <chr>                     <int>
##  1 Ablennes hians               28
##  2 Abramis brama               389
##  3 Abramis spp                  67
##  4 Acanthistius brasilianus     89
##  5 Acanthocybium solandri     1216
##  6 Acanthopagrus berda          22
##  7 Acanthopagrus bifasciatus    51
##  8 Acanthopagrus latus          64
##  9 Acanthopagrus schlegeli      24
## 10 Acanthuridae                296
## # … with 1,536 more rows
```

6. Which country had the largest overall catch in the year 2000?

China

```r
fisheries_tidy %>% 
  filter(year==2000) %>%
  group_by(country) %>% 
  summarize(catch_total=sum(catch, na.rm=T)) %>% 
  arrange(desc(catch_total))
```

```
## # A tibble: 193 × 2
##    country                  catch_total
##    <fct>                          <dbl>
##  1 China                          25899
##  2 Russian Federation             12181
##  3 United States of America       11762
##  4 Japan                           8510
##  5 Indonesia                       8341
##  6 Peru                            7443
##  7 Chile                           6906
##  8 India                           6351
##  9 Thailand                        6243
## 10 Korea, Republic of              6124
## # … with 183 more rows
```

7. Which country caught the most sardines (_Sardina pilchardus_) between the years 1990-2000?
Morroco

```r
fisheries_tidy %>% 
  filter(year > 1990 & year < 2000  & asfis_species_name == "Sardina pilchardus") %>% 
  group_by(country) %>% 
   summarize(catch_total=sum(catch, na.rm=T)) %>% 
  arrange(desc(catch_total))
```

```
## # A tibble: 37 × 2
##    country               catch_total
##    <fct>                       <dbl>
##  1 Morocco                      5737
##  2 Spain                        2770
##  3 Russian Federation           1436
##  4 France                        801
##  5 Ukraine                       679
##  6 Portugal                      561
##  7 Denmark                       472
##  8 Italy                         465
##  9 Greece                        449
## 10 Serbia and Montenegro         442
## # … with 27 more rows
```
…
9. Which species had the highest catch total between 2008-2012? (hint: Osteichthyes is not a species)
Theragra chalcogramma had the highest catch total.

```r
fisheries_tidy %>% 
  filter(year > 2008 & year < 2012) %>% 
  group_by(asfis_species_name) %>% 
   summarize(catch_total=sum(catch, na.rm=T)) %>% 
  arrange(desc(catch_total))
```

```
## # A tibble: 1,438 × 2
##    asfis_species_name    catch_total
##    <chr>                       <dbl>
##  1 Osteichthyes                65288
##  2 Theragra chalcogramma       20614
##  3 Trichiurus lepturus         19655
##  4 Katsuwonus pelamis          18307
##  5 Clupea harengus             14880
##  6 Engraulis ringens           12973
##  7 Thunnus albacares           12333
##  8 Scomber japonicus            9046
##  9 Gadus morhua                 8384
## 10 Thunnus alalunga             7221
## # … with 1,428 more rows
```

10. Use the data to do at least one analysis of your choice.

```r
fisheries_tidy %>% 
  filter(year == 1999) %>% 
  group_by(country) %>% 
  summarize(catch_total=sum(catch, na.rm = T)) %>% 
  arrange(desc(catch_total))
```

```
## # A tibble: 192 × 2
##    country                  catch_total
##    <fct>                          <dbl>
##  1 China                          19413
##  2 Chile                          15501
##  3 United States of America       15154
##  4 Japan                           8297
##  5 Indonesia                       8182
##  6 Russian Federation              7634
##  7 India                           6379
##  8 Korea, Republic of              6177
##  9 Spain                           6069
## 10 Portugal                        5475
## # … with 182 more rows
```
…
