…
## Data
These data are from a study on surgical residents. The study was originally published by Sessier et al. “Operation Timing and 30-Day Mortality After Elective General Surgery”. Anesth Analg 2011; 113: 1423-8. The data were cleaned for instructional use by Amy S. Nowacki, “Surgery Timing Dataset”, TSHS Resources Portal (2016). Available at https://www.causeweb.org/tshs/surgery-timing/.

Descriptions of the variables and the study are included as pdf's in the data folder.  

Please run the following chunk to import the data.

```r
surgery <- read_csv("data/surgery.csv")
surgery
```

```
## # A tibble: 32,001 × 25
##    ahrq_ccs   age gender race      asa_s…¹   bmi basel…² basel…³ basel…⁴ basel…⁵
##    <chr>    <dbl> <chr>  <chr>     <chr>   <dbl> <chr>   <chr>   <chr>   <chr>  
##  1 <Other>   67.8 M      Caucasian I-II     28.0 No      Yes     No      No     
##  2 <Other>   39.5 F      Caucasian I-II     37.8 No      Yes     No      No     
##  3 <Other>   56.5 F      Caucasian I-II     19.6 No      No      No      No     
##  4 <Other>   71   M      Caucasian III      32.2 No      Yes     No      No     
##  5 <Other>   56.3 M      African … I-II     24.3 Yes     No      No      No     
##  6 <Other>   57.7 F      Caucasian I-II     40.3 No      Yes     No      No     
##  7 <Other>   56.6 M      Other     IV-VI    64.6 No      Yes     No      Yes    
##  8 <Other>   64.2 F      Caucasian III      43.2 No      Yes     No      No     
##  9 <Other>   66.2 M      Caucasian III      28.0 No      Yes     No      No     
## 10 <Other>   20.1 F      Caucasian I-II     27.4 Yes     No      No      No     
## # … with 31,991 more rows, 15 more variables: baseline_digestive <chr>,
## #   baseline_osteoart <chr>, baseline_psych <chr>, baseline_pulmonary <chr>,
## #   baseline_charlson <dbl>, mortality_rsi <dbl>, complication_rsi <dbl>,
## #   ccsmort30rate <dbl>, ccscomplicationrate <dbl>, hour <dbl>, dow <chr>,
## #   month <chr>, moonphase <chr>, mort30 <chr>, complication <chr>, and
## #   abbreviated variable names ¹​asa_status, ²​baseline_cancer, ³​baseline_cvd,
## #   ⁴​baseline_dementia, ⁵​baseline_diabetes
```
…
```r
naniar::miss_var_summary(surgery)
```

```
## # A tibble: 25 × 3
##    variable          n_miss pct_miss
##    <chr>              <int>    <dbl>
##  1 bmi                 3290 10.3    
##  2 race                 480  1.50   
##  3 asa_status             8  0.0250 
##  4 gender                 3  0.00937
##  5 age                    2  0.00625
##  6 ahrq_ccs               0  0      
##  7 baseline_cancer        0  0      
##  8 baseline_cvd           0  0      
##  9 baseline_dementia      0  0      
## 10 baseline_diabetes      0  0      
## # … with 15 more rows
```
…
9. (4 points) When is the best month to have surgery? Make a chart that shows the 30-day mortality and complications for the patients by month. `mort30` is the variable that shows whether or not a patient survived 30 days post-operation.

```r
#use mutate?
surgery %>% 
  select(month, mort30, complication) %>% 
  filter(mort30 == "Yes" | complication == "Yes") %>% 
  group_by(month) %>% 
  count(mort30, complication)
```

```
## # A tibble: 36 × 4
## # Groups:   month [12]
##    month mort30 complication     n
##    <chr> <chr>  <chr>        <int>
##  1 Apr   No     Yes            317
##  2 Apr   Yes    No               8
##  3 Apr   Yes    Yes              4
##  4 Aug   No     Yes            460
##  5 Aug   Yes    No               7
##  6 Aug   Yes    Yes              2
##  7 Dec   No     Yes            236
##  8 Dec   Yes    No               3
##  9 Dec   Yes    Yes              1
## 10 Feb   No     Yes            337
## # … with 26 more rows
```
…
