…
Problem 6. (2 points) The family Anatidae includes ducks, geese, and swans. Make a new object `ducks` that only includes species in the family Anatidae. Restrict this new dataframe to include all variables except order and family.

```r
ducks <- filter(ecosphere, family == "Anatidae")
ducks %>% 
  select(-order, -family)
```

```
## # A tibble: 44 × 19
##    commo…¹ scien…² diet  life_…³ habitat urban…⁴ migra…⁵ log10…⁶ mean_…⁷ mean_…⁸
##    <chr>   <chr>   <chr> <chr>   <chr>   <chr>   <chr>     <dbl>   <dbl>   <dbl>
##  1 "Ameri… Anas r… Vege… Long    Wetland No      Short      3.09     9       1  
##  2 "Ameri… Anas a… Vege… Middle  Wetland No      Short      2.88     7.5     1  
##  3 "Barro… Buceph… Inve… Middle  Wetland No      Modera…    2.96    10.5     3  
##  4 "Black… Branta… Vege… Long    Wetland No      Modera…    3.11     3.5     2.5
##  5 "Black… Melani… Inve… Middle  Wetland No      Modera…    3.02     9.5     2  
##  6 "Black… Dendro… Vege… Short   Wetland No      Withdr…    2.88    13.5     1  
##  7 "Blue-… Anas d… Vege… Middle  Wetland No      Modera…    2.56    10       0.6
##  8 "Buffl… Buceph… Inve… Middle  Wetland No      Short      2.6      8.5     2  
##  9 "Cackl… Branta… Vege… Middle  Wetland Yes     Short      3.45     5       1  
## 10 "Canva… Aythya… Vege… Middle  Wetland No      Short      3.08     8       1  
## # … with 34 more rows, 9 more variables: population_size <dbl>,
## #   winter_range_area <dbl>, range_in_cbc <dbl>, strata <dbl>, circles <dbl>,
## #   feeder_bird <chr>, median_trend <dbl>, lower_95_percent_ci <dbl>,
## #   upper_95_percent_ci <dbl>, and abbreviated variable names ¹​common_name,
## #   ²​scientific_name, ³​life_expectancy, ⁴​urban_affiliate, ⁵​migratory_strategy,
## #   ⁶​log10_mass, ⁷​mean_eggs_per_clutch, ⁸​mean_age_at_sexual_maturity
```
…
Problem 8. (4 points) In ducks, how is mean body mass associated with migratory strategy? Do the ducks that migrate long distances have high or low average body mass?

```r
#Ducks migrating long distance have a somewhat low mean body mass.
ducks %>% 
  select(log10_mass, migratory_strategy) %>% 
  arrange(migratory_strategy)
```

```
## # A tibble: 44 × 2
##    log10_mass migratory_strategy
##         <dbl> <chr>             
##  1       2.89 Long              
##  2       2.85 Long              
##  3       2.96 Moderate          
##  4       3.11 Moderate          
##  5       3.02 Moderate          
##  6       2.56 Moderate          
##  7       3.33 Moderate          
##  8       3    Moderate          
##  9       3.4  Moderate          
## 10       2.75 Moderate          
## # … with 34 more rows
```
…
Problem 12. (4 points) Use the `ecosphere` data to perform one exploratory analysis of your choice. The analysis must have a minimum of three lines and two functions. You must also clearly state the question you are attempting to answer.


```r
#What is the correlation between mass and eggs laid? What is the ratio of mass to eggs?
ecosphere %>% 
  select(common_name, mean_eggs_per_clutch, log10_mass) %>% 
  mutate(mass_egg_ratio = log10_mass/mean_eggs_per_clutch) %>% 
  arrange(desc(mass_egg_ratio))
```

```
## # A tibble: 551 × 4
##    common_name             mean_eggs_per_clutch log10_mass mass_egg_ratio
##    <chr>                                  <dbl>      <dbl>          <dbl>
##  1 California Condor                          1       3.93           3.93
##  2 Northern Gannet                            1       3.48           3.48
##  3 Black-footed Albatross                     1       3.45           3.45
##  4 Magnificent Frigatebird                    1       3.17           3.17
##  5 Common Murre                               1       3              3   
##  6 Thick-billed Murre                         1       2.98           2.98
##  7 Sooty Shearwater                           1       2.9            2.9 
##  8 Razorbill                                  1       2.86           2.86
##  9 Northern Fulmar                            1       2.79           2.79
## 10 Atlantic Puffin                            1       2.77           2.77
## # … with 541 more rows
```
…
