…
**4. What taxa are represented in the `homerange` data frame? Make a new data frame `taxa` that is restricted to taxon, common name, class, order, family, genus, species.**  
The taxa represented are birds, lake fishes, lizards, mammals, marine fishes, river fishes, snakes, tortoises, and turtles.

```r
taxa <- select(homerange, taxon, "common.name", "class", order, "family", "genus", "species") 
taxa
```

```
## # A tibble: 569 × 7
##    taxon         common.name             class        order family genus species
##    <fct>         <chr>                   <chr>        <fct> <chr>  <chr> <chr>  
##  1 lake fishes   american eel            actinoptery… angu… angui… angu… rostra…
##  2 river fishes  blacktail redhorse      actinoptery… cypr… catos… moxo… poecil…
##  3 river fishes  central stoneroller     actinoptery… cypr… cypri… camp… anomal…
##  4 river fishes  rosyside dace           actinoptery… cypr… cypri… clin… fundul…
##  5 river fishes  longnose dace           actinoptery… cypr… cypri… rhin… catara…
##  6 river fishes  muskellunge             actinoptery… esoc… esoci… esox  masqui…
##  7 marine fishes pollack                 actinoptery… gadi… gadid… poll… pollac…
##  8 marine fishes saithe                  actinoptery… gadi… gadid… poll… virens 
##  9 marine fishes lined surgeonfish       actinoptery… perc… acant… acan… lineat…
## 10 marine fishes orangespine unicornfish actinoptery… perc… acant… naso  litura…
## # … with 559 more rows
```

```r
arrange(taxa, taxon)
```

```
## # A tibble: 569 × 7
##    taxon common.name            class order            family      genus species
##    <fct> <chr>                  <chr> <fct>            <chr>       <chr> <chr>  
##  1 birds golden eagle           aves  accipitriformes  accipitrid… aqui… chrysa…
##  2 birds common buzzard         aves  accipitriformes  accipitrid… buteo buteo  
##  3 birds short-toed snake eagle aves  accipitriformes  accipitrid… circ… gallic…
##  4 birds Bonelli's eagle        aves  accipitriformes  accipitrid… hier… fascia…
##  5 birds booted eagle           aves  accipitriformes  accipitrid… hier… pennat…
##  6 birds Egyptian vulture       aves  accipitriformes  accipitrid… neop… percno…
##  7 birds gadwall                aves  anseriformes     anatidae    anas  strepe…
##  8 birds northern brown kiwi    aves  apterygiformes   apterygidae apte… austra…
##  9 birds European nightjar      aves  caprimulgiformes caprimulgi… capr… europa…
## 10 birds oystercatcher          aves  charadriiformes  haematopod… haem… ostral…
## # … with 559 more rows
```
…
**7. Make two new data frames, one which is restricted to carnivores and another that is restricted to herbivores.**  

```r
carnivore_data <- filter(homerange, trophic.guild == "carnivore")
carnivore_data
```

```
## # A tibble: 342 × 24
##    taxon  commo…¹ class order family genus species prima…² N     mean.…³ log10…⁴
##    <fct>  <chr>   <chr> <fct> <chr>  <chr> <chr>   <chr>   <chr>   <dbl>   <dbl>
##  1 lake … americ… acti… angu… angui… angu… rostra… teleme… 16       887    2.95 
##  2 river… blackt… acti… cypr… catos… moxo… poecil… mark-r… <NA>     562    2.75 
##  3 river… centra… acti… cypr… cypri… camp… anomal… mark-r… 20        34    1.53 
##  4 river… rosysi… acti… cypr… cypri… clin… fundul… mark-r… 26         4    0.602
##  5 river… longno… acti… cypr… cypri… rhin… catara… mark-r… 17         4    0.602
##  6 river… muskel… acti… esoc… esoci… esox  masqui… teleme… 5       3525    3.55 
##  7 marin… pollack acti… gadi… gadid… poll… pollac… teleme… 2        737.   2.87 
##  8 marin… saithe  acti… gadi… gadid… poll… virens  teleme… 2        449.   2.65 
##  9 marin… giant … acti… perc… caran… cara… ignobi… teleme… 4        726.   2.86 
## 10 lake … rock b… acti… perc… centr… ambl… rupest… mark-r… 16       196    2.29 
## # … with 332 more rows, 13 more variables: alternative.mass.reference <chr>,
## #   mean.hra.m2 <dbl>, log10.hra <dbl>, hra.reference <chr>, realm <chr>,
## #   thermoregulation <chr>, locomotion <chr>, trophic.guild <chr>,
## #   dimension <dbl>, preymass <dbl>, log10.preymass <dbl>, PPMR <dbl>,
## #   prey.size.reference <chr>, and abbreviated variable names ¹​common.name,
## #   ²​primarymethod, ³​mean.mass.g, ⁴​log10.mass
```

```r
herbivore_data <- filter(homerange, trophic.guild == "herbivore")
herbivore_data
```

```
## # A tibble: 227 × 24
##    taxon  commo…¹ class order family genus species prima…² N     mean.…³ log10…⁴
##    <fct>  <chr>   <chr> <fct> <chr>  <chr> <chr>   <chr>   <chr>   <dbl>   <dbl>
##  1 marin… lined … acti… perc… acant… acan… lineat… direct… <NA>   109.     2.04 
##  2 marin… orange… acti… perc… acant… naso  litura… teleme… 8      772.     2.89 
##  3 marin… bluesp… acti… perc… acant… naso  unicor… teleme… 7      152.     2.18 
##  4 marin… redlip… acti… perc… blenn… ophi… atlant… direct… 20       6.2    0.792
##  5 marin… bermud… acti… perc… kypho… kyph… sectat… teleme… 11    1087.     3.04 
##  6 marin… cherub… acti… perc… pomac… cent… argi    direct… <NA>     2.5    0.398
##  7 marin… damsel… acti… perc… pomac… chro… chromis direct… <NA>    28.4    1.45 
##  8 marin… twinsp… acti… perc… pomac… chry… biocel… direct… 18       9.19   0.963
##  9 marin… wards … acti… perc… pomac… poma… wardi   direct… <NA>    10.5    1.02 
## 10 marin… austra… acti… perc… pomac… steg… apical… direct… <NA>    45.3    1.66 
## # … with 217 more rows, 13 more variables: alternative.mass.reference <chr>,
## #   mean.hra.m2 <dbl>, log10.hra <dbl>, hra.reference <chr>, realm <chr>,
## #   thermoregulation <chr>, locomotion <chr>, trophic.guild <chr>,
## #   dimension <dbl>, preymass <dbl>, log10.preymass <dbl>, PPMR <dbl>,
## #   prey.size.reference <chr>, and abbreviated variable names ¹​common.name,
## #   ²​primarymethod, ³​mean.mass.g, ⁴​log10.mass
```
…
**10. As measured by the data, which snake species has the smallest homerange? Show all of your work, please. Look this species up online and tell me about it!** **Snake is found in taxon column** 
The snake with the smallest homerange is the namaqua dwarf adder.
This snake is an endangered species and its venom causes pain and swelling. It hides in the sand to ambush its prey.

```r
snake <- filter(homerange, taxon == "snakes")
arrange(snake, mean.hra.m2)
```

```
## # A tibble: 41 × 24
##    taxon  commo…¹ class order family genus species prima…² N     mean.…³ log10…⁴
##    <fct>  <chr>   <chr> <fct> <chr>  <chr> <chr>   <chr>   <chr>   <dbl>   <dbl>
##  1 snakes namaqu… rept… squa… viper… bitis schnei… teleme… 11      17.0    1.23 
##  2 snakes easter… rept… squa… colub… carp… viridis radiot… 10       3.65   0.562
##  3 snakes butler… rept… squa… colub… tham… butleri mark-r… 1       21.5    1.33 
##  4 snakes wester… rept… squa… colub… carp… vermis  radiot… 1        3.46   0.539
##  5 snakes snubno… rept… squa… viper… vipe… latast… teleme… 7       97.4    1.99 
##  6 snakes chines… rept… squa… viper… gloy… shedao… teleme… 16     197.     2.29 
##  7 snakes ringne… rept… squa… colub… diad… puncta… mark-r… <NA>     9      0.954
##  8 snakes cotton… rept… squa… viper… agki… pisciv… teleme… 15     188      2.27 
##  9 snakes redbac… rept… squa… colub… ooca… rufodo… teleme… 21      62.5    1.80 
## 10 snakes gopher… rept… squa… colub… pitu… cateni… teleme… 4      375      2.57 
## # … with 31 more rows, 13 more variables: alternative.mass.reference <chr>,
## #   mean.hra.m2 <dbl>, log10.hra <dbl>, hra.reference <chr>, realm <chr>,
## #   thermoregulation <chr>, locomotion <chr>, trophic.guild <chr>,
## #   dimension <dbl>, preymass <dbl>, log10.preymass <dbl>, PPMR <dbl>,
## #   prey.size.reference <chr>, and abbreviated variable names ¹​common.name,
## #   ²​primarymethod, ³​mean.mass.g, ⁴​log10.mass
```
…
