…
```r
colleges
```

```
## # A tibble: 341 × 10
##    INSTNM      CITY  STABBR ZIP   ADM_R…¹ SAT_AVG PCIP26 COSTT…² C150_…³ PFTFT…⁴
##    <chr>       <chr> <chr>  <chr>   <dbl>   <dbl>  <dbl>   <dbl>   <dbl>   <dbl>
##  1 Grossmont … El C… CA     9202…      NA      NA 0.0016    7956  NA       0.355
##  2 College of… Visa… CA     9327…      NA      NA 0.0066    8109  NA       0.541
##  3 College of… San … CA     9440…      NA      NA 0.0038    8278  NA       0.357
##  4 Ventura Co… Vent… CA     9300…      NA      NA 0.0035    8407  NA       0.382
##  5 Oxnard Col… Oxna… CA     9303…      NA      NA 0.0085    8516  NA       0.275
##  6 Moorpark C… Moor… CA     9302…      NA      NA 0.0151    8577  NA       0.429
##  7 Skyline Co… San … CA     9406…      NA      NA 0         8580   0.233   0.231
##  8 Glendale C… Glen… CA     9120…      NA      NA 0.002     9181  NA       0.421
##  9 Citrus Col… Glen… CA     9174…      NA      NA 0.0021    9281  NA       0.440
## 10 Fresno Cit… Fres… CA     93741      NA      NA 0.0324    9370  NA       0.366
## # … with 331 more rows, and abbreviated variable names ¹​ADM_RATE, ²​COSTT4_A,
## #   ³​C150_4_POOLED, ⁴​PFTFTUG1_EF
```
…
2. Which cities in California have the highest number of colleges?

```r
#Los Angeles has the highest number of colleges.
colleges %>%
  filter(stabbr == "CA") %>% 
  count(city) %>% 
  arrange(desc(n))
```

```
## # A tibble: 159 × 2
##    city              n
##    <chr>         <int>
##  1 Los Angeles      24
##  2 San Diego        18
##  3 San Francisco    15
##  4 Sacramento       10
##  5 Berkeley          9
##  6 Oakland           9
##  7 Claremont         7
##  8 Pasadena          6
##  9 Fresno            5
## 10 Irvine            5
## # … with 149 more rows
```
…
4. The column `COSTT4_A` is the annual cost of each institution. Which city has the highest average cost? Where is it located?

```r
#Claremont has the highest average cost, 
colleges %>% 
  group_by(city) %>% 
  summarize(mean_avg_cost =mean(costt4_a, na.rm = T)) %>% 
  arrange(desc(mean_avg_cost))
```

```
## # A tibble: 161 × 2
##    city                mean_avg_cost
##    <chr>                       <dbl>
##  1 Claremont                   66498
##  2 Malibu                      66152
##  3 Valencia                    64686
##  4 Orange                      64501
##  5 Redlands                    61542
##  6 Moraga                      61095
##  7 Atherton                    56035
##  8 Thousand Oaks               54373
##  9 Rancho Palos Verdes         50758
## 10 La Verne                    50603
## # … with 151 more rows
```
…
